…
#Compute exact optimum allocation for PEVS-ADM 2016 data set for n = 50k
#Assumes tau = 1 by default
pevs_optE_alloc_50k <- opt_nh_nonresp(N_h = pevs_adm_2016_rrs$Nhat_h,
                                      phibar_h = pevs_adm_2016_rrs$rr_h,
                                      n_max = 50000)

#Merge results into original data frame
pevs_adm_alloc_50k_merged <- pevs_adm_2016_rrs %>%
  dplyr::mutate(n_h_optE = c(pevs_optE_alloc_50k),
                zeta_h_optE = attr(pevs_optE_alloc_50k,"zeta_h_min_1"))

#View results
pevs_adm_alloc_50k_merged
#> # A tibble: 91 × 10
#>    h     service paygrade age   region  sex   Nhat_h   rr_h n_h_optE zeta_h_optE
#>    <chr> <fct>   <fct>    <fct> <fct>   <fct>  <dbl>  <dbl>    <dbl>       <dbl>
#>  1 1     Army    E1-E5    18-24 US      M     1.09e5 0.0189    8267.        1.01
#>  2 2     Army    E1-E5    18-24 US      F     1.89e4 0.0364    1041.        1.03
#>  3 3     Army    E1-E5    18-24 Overse… M     1.85e4 0.0214    1333.        1.04
#>  4 4     Army    E1-E5    18-24 Overse… F     3.31e3 0.0431     179.        1.17
#>  5 5     Army    E1-E5    25-29 US      M     4.83e4 0.0487    2280.        1.01
#>  6 6     Army    E1-E5    25-29 US      F     8.68e3 0.0619     370.        1.05
#>  7 7     Army    E1-E5    25-29 Overse… M/F   1.08e4 0.0566     477.        1.04
#>  8 8     Army    E1-E5    30-34 US      M/F   2.14e4 0.0891     746.        1.01
#>  9 9     Army    E1-E5    30-34 Overse… M/F   3.74e3 0.0904     135.        1.09
#> 10 10    Army    E1-E5    35+   US      M/F   9.06e3 0.188      219.        1.02
#> # ℹ 81 more rows
```
…
#Make sure allocations are valid
all(nh_Ninv >= 2 & nh_Ninv <= pevs_adm_2016_rrs$Nhat_h)
#> [1] TRUE
all(nh_Ninv >= 2 & nh_Nresp <= pevs_adm_2016_rrs$Nhat_h)
#> [1] TRUE

#Show results
(pevs_adm_allocs_50k <- 
  pevs_adm_alloc_50k_merged %>%
  mutate(n_h_optA = pevs_optA_alloc_50k,
         n_h_Ninv = nh_Ninv,
         n_h_Nresp = nh_Nresp) %>%
  select(c("h", "n_h_Ninv", "n_h_Nresp", "n_h_optA", "n_h_optE", "zeta_h_optE")))
#> # A tibble: 91 × 6
#>    h     n_h_Ninv n_h_Nresp n_h_optA n_h_optE zeta_h_optE
#>    <chr>    <dbl>     <dbl>    <dbl>    <dbl>       <dbl>
#>  1 1        4269.   12975.     8309.    8267.        1.01
#>  2 2         740.    1164.     1036.    1041.        1.03
#>  3 3         722.    1935.     1320.    1333.        1.04
#>  4 4         129.     172.      167.     179.        1.17
#>  5 5        1890.    2225.     2289.    2280.        1.01
#>  6 6         339.     314.      364.     370.        1.05
#>  7 7         421.     426.      473.     477.        1.04
#>  8 8         835.     537.      747.     746.        1.01
#>  9 9         146.      92.6     130.     135.        1.09
#> 10 10        354.     108.      218.     219.        1.02
#> # ℹ 81 more rows
```
…
