Calculate optimal allocation under anticipated nonresponse — opt_nh_nonresp • samplingNR
…
    Examples

#Compute exact optimum allocation for PEVS-ADM 2016 data set for n = 50k
#Assumes tau = 1 by default
pevs_optE_alloc_50k <- opt_nh_nonresp(N_h = pevs_adm_2016_rrs$Nhat_h,
                                      phibar_h = pevs_adm_2016_rrs$rr_h,
                                      n_max = 50000)

#Merge results into data frame
(pevs_adm_alloc_50k_merged <- pevs_adm_2016_rrs %>%
  dplyr::mutate(n_h_optE = c(pevs_optE_alloc_50k),
                zeta_h_optE = attr(pevs_optE_alloc_50k,"zeta_h_prev")))
#> # A tibble: 91 × 10
#>    h     service paygrade age   region  sex   Nhat_h   rr_h n_h_optE zeta_h_optE
#>    <chr> <fct>   <fct>    <fct> <fct>   <fct>  <dbl>  <dbl>    <dbl>       <dbl>
#>  1 1     Army    E1-E5    18-24 US      M     1.09e5 0.0189    8267.        1.01
#>  2 2     Army    E1-E5    18-24 US      F     1.89e4 0.0364    1041.        1.03
#>  3 3     Army    E1-E5    18-24 Overse… M     1.85e4 0.0214    1333.        1.04
#>  4 4     Army    E1-E5    18-24 Overse… F     3.31e3 0.0431     179.        1.17
#>  5 5     Army    E1-E5    25-29 US      M     4.83e4 0.0487    2280.        1.01
#>  6 6     Army    E1-E5    25-29 US      F     8.68e3 0.0619     370.        1.05
#>  7 7     Army    E1-E5    25-29 Overse… M/F   1.08e4 0.0566     477.        1.04
#>  8 8     Army    E1-E5    30-34 US      M/F   2.14e4 0.0891     746.        1.01
#>  9 9     Army    E1-E5    30-34 Overse… M/F   3.74e3 0.0904     135.        1.09
#> 10 10    Army    E1-E5    35+   US      M/F   9.06e3 0.188      219.        1.02
#> # ℹ 81 more rows

#For comparison purposes, compute approximate version of proposed allocation
pevs_optA_alloc_50k <- opt_nh_nonresp_oneiter(N_h = pevs_adm_2016_rrs$Nhat_h,
                                              phibar_h = pevs_adm_2016_rrs$rr_h,
                                              n_max = 50000)

#Merge results to previous tibble and reorder columns to be adjacent
pevs_adm_alloc_50k_merged %>%
  dplyr::mutate(n_h_optA = c(pevs_optA_alloc_50k)) %>%
  dplyr::relocate(zeta_h_optE, .after = "n_h_optA")
#> # A tibble: 91 × 11
#>    h     service paygrade age   region   sex    Nhat_h   rr_h n_h_optE n_h_optA
#>    <chr> <fct>   <fct>    <fct> <fct>    <fct>   <dbl>  <dbl>    <dbl>    <dbl>
#>  1 1     Army    E1-E5    18-24 US       M     109214. 0.0189    8267.    8309.
#>  2 2     Army    E1-E5    18-24 US       F      18921. 0.0364    1041.    1036.
#>  3 3     Army    E1-E5    18-24 Overseas M      18465. 0.0214    1333.    1320.
#>  4 4     Army    E1-E5    18-24 Overseas F       3312. 0.0431     179.     167.
#>  5 5     Army    E1-E5    25-29 US       M      48348. 0.0487    2280.    2289.
#>  6 6     Army    E1-E5    25-29 US       F       8680  0.0619     370.     364.
#>  7 7     Army    E1-E5    25-29 Overseas M/F    10762. 0.0566     477.     473.
#>  8 8     Army    E1-E5    30-34 US       M/F    21352. 0.0891     746.     747.
#>  9 9     Army    E1-E5    30-34 Overseas M/F     3739. 0.0904     135.     130.
#> 10 10    Army    E1-E5    35+   US       M/F     9055. 0.188      219.     218.
#> # ℹ 81 more rows
#> # ℹ 1 more variable: zeta_h_optE <dbl>
…
